<svg id="ic_group_work_24px" xmlns="http://www.w3.org/2000/svg" width="34" height="34" viewBox="0 0 34 34">
  <path id="Path_157" data-name="Path 157" d="M0,0H34V34H0Z" fill="none"/>
  <path id="Path_158" data-name="Path 158" d="M17,2A15,15,0,1,0,32,17,15.005,15.005,0,0,0,17,2ZM11,25.25a3.75,3.75,0,1,1,3.75-3.75A3.751,3.751,0,0,1,11,25.25ZM13.25,11A3.75,3.75,0,1,1,17,14.75,3.751,3.751,0,0,1,13.25,11ZM23,25.25a3.75,3.75,0,1,1,3.75-3.75A3.751,3.751,0,0,1,23,25.25Z" transform="translate(0 0)" fill="#fff"/>
</svg>
